…
``` r
getstat <- function(un = username, pas = password){
  temp <- getlist(un,pas,ep = 'franchise-team-totals')
  dat <- temp[[1]] %>%
  select(!c(id,activeFranchise,gameTypeId,lastSeasonId,teamId, teamName, triCode)) %>%
  group_by(firstSeasonId) %>%
  summarise_each(funs(sum(., na.rm = T)))
  return(dat)
}

franstat <- getstat()
franstat
```

    ## # A tibble: 31 x 23
    ##    firstSeasonId franchiseId gamesPlayed goalsAgainst goalsFor homeLosses
    ##            <int>       <int>       <int>        <int>    <int>      <int>
    ##  1      19171918          20        8196        21902    25864       1111
    ##  2      19191920          14         265          970      838         49
    ##  3      19201921           4         126          475      414         30
    ##  4      19241925          26        7973        22528    24616       1230
    ##  5      19251926          34         970         2580     1926        213
    ##  6      19261927          66       14364        43210    42903       2522
    ##  7      19271928          10        7061        21444    21378       1202
    ##  8      19301931          33         138          400      274         27
    ##  9      19321933          24        6911        20446    21295       1066
    ## 10      19341935           3          48          144       86         14
    ## # ... with 21 more rows, and 17 more variables: homeOvertimeLosses <int>,
    ## #   homeTies <int>, homeWins <int>, losses <int>, overtimeLosses <int>,
    ## #   penaltyMinutes <int>, pointPctg <dbl>, points <int>, roadLosses <int>,
    ## #   roadOvertimeLosses <int>, roadTies <int>, roadWins <int>,
    ## #   shootoutLosses <int>, shootoutWins <int>, shutouts <int>, ties <int>,
    ## #   wins <int>
…
